{
  "development": {
    "ACCESS_TOKEN": {
      "secretKey": "8FWQDF%$ERDFGH#$FDSJ&*#@R1!34Vh",
      "REFRESHABLE": {
        "signOptions": {
          "algorithm": "HS256",
          "expiresIn": 18000
        }
      },
      "PERMANENT": {
        "signOptions": {
          "algorithm": "HS256"
        }
      }
    },
    "REFRESH_TOKEN": {
      "secretKey": "#7h*7y!JHpZ2#ssH#$FDSJVpKKf",
      "signOptions": {
        "algorithm": "HS256",
        "expiresIn": 240
      }
    }
  },
  "test": {
    "ACCESS_TOKEN": {
      "secretKey": "8FWQDF%$ERDFGH#$FDSJ&*#@R1!34Vh",
      "REFRESHABLE": {
        "signOptions": {
          "algorithm": "HS256",
          "expiresIn": 18000
        }
      },
      "PERMANENT": {
        "signOptions": {
          "algorithm": "HS256"
        }
      }
    },
    "REFRESH_TOKEN": {
      "secretKey": "#7h*7y!JHpZ2#ssH#$FDSJVpKKf",
      "signOptions": {
        "algorithm": "HS256",
        "expiresIn": 240
      }
    }
  },
  "production": {
    "ACCESS_TOKEN": {
      "secretKey": "4DmiYN$!@e#f4wsv!Q77BIj",
      "REFRESHABLE": {
        "signOptions": {
          "algorithm": "HS256",
          "expiresIn": 1800
        }
      },
      "PERMANENT": {
        "signOptions": {
          "algorithm": "HS256"
        }
      }
    },
    "REFRESH_TOKEN": {
      "secretKey": "Ngtgh%^32fdCU7sdf43D29vLb",
      "signOptions": {
        "algorithm": "HS256",
        "expiresIn": 5184000
      }
    }
  }
}
